Taller R - Rifa Valentina
…
--

<img src="imagenes/grafico1.png" width="50%" style="display: block; margin: auto;" />

---

# Visualizar la incertidumbre

#### Gráfico de líneas

Data con la evolución de los ocupados (en miles) en Chile entre 2010 y 2021.

```
## # A tibble: 133 x 4
##    ocupados periodo ocupados_low ocupados_upp
##       <dbl>   <int>        <dbl>        <dbl>
##  1    7156.       1        6798.        7514.
##  2    7199.       2        6839.        7559.
##  3    7182.       3        6823.        7541.
##  4    7222.       4        6860.        7583.
##  5    7257.       5        6894.        7619.
##  6    7289.       6        6925.        7654.
##  7    7389.       7        7020.        7759.
##  8    7414.       8        7044.        7785.
##  9    7503.       9        7128.        7878.
## 10    7572.      10        7194.        7951.
## # ... with 123 more rows
```
…
